{
  "development": {
    "username": "maltesepu",
    "password": "123",
    "database": "post_test",
    "host": "127.0.0.1",
    "dialect": "postgres"
  },
  "test": {
    "username": "maltesepu",
    "password": "123",
    "database": "database_test",
    "host": "127.0.0.1",
    "dialect": "postgres"
  },
  "production": {
    "username": "maltesepu",
    "password": "123",
    "database": "database_production",
    "host": "127.0.0.1",
    "dialect": "postgres"
  }
}
